4,"Double Play",2,0,-1,10,20,2|	
4,"Triple Play",3,0,-1,15,25,3|
4,"Quad Play",4,0,-1,20,30,4|
4,"Penta Play",5,0,-1,25,35,5|
4,"Hexa Play",6,0,-1,30,40,6|
4,"Septa Play",7,0,-1,35,45,7|
4,"Octa Play",8,0,-1,40,50,8|
4,"Nona Play",9,0,-1,45,55,9|
4,"Deca Play",10,0,-1,50,60,10|
5,"Flush",3,0,3.4.5,-1,100,0|
-1,"Impeccable",-1,0,-1,-1,500,0